%YAML 1.1
%TAG !u! tag:unity3d.com,2011:
--- !u!21 &2100000
Material:
  serializedVersion: 6
  m_ObjectHideFlags: 0
  m_PrefabParentObject: {fileID: 0}
  m_PrefabInternal: {fileID: 0}
  m_Name: Shadow Material
  m_Shader: {fileID: 4800000, guid: ac96f5c0b697340a887ac2bd77a0bddc, type: 3}
  m_ShaderKeywords: 
  m_LightmapFlags: 5
  m_CustomRenderQueue: -1
  stringTagMap: {}
  m_SavedProperties:
    serializedVersion: 2
    m_TexEnvs:
      data:
        first:
          name: _MainTex
        second:
          m_Texture: {fileID: 0}
          m_Scale: {x: 1, y: 1}
          m_Offset: {x: 0, y: 0}
      data:
        first:
          name: _BumpTex
        second:
          m_Texture: {fileID: 0}
          m_Scale: {x: 1, y: 1}
          m_Offset: {x: 0, y: 0}
      data:
        first:
          name: _ShadowTex
        second:
          m_Texture: {fileID: 2800000, guid: 0eb0a732ad112a541100162a44295342, type: 3}
          m_Scale: {x: 1, y: 1}
          m_Offset: {x: 0, y: 0}
      data:
        first:
          name: _FalloffTex
        second:
          m_Texture: {fileID: 2800000, guid: cc90a732ad112a541100162a44295342, type: 3}
          m_Scale: {x: 1, y: 1}
          m_Offset: {x: 0, y: 0}
      data:
        first:
          name: _CombineTex
        second:
          m_Texture: {fileID: 2800000, guid: 92b0a732ad112a541100162a44295342, type: 3}
          m_Scale: {x: 1, y: 1}
          m_Offset: {x: 0, y: 0}
      data:
        first:
          name: _HiliteTex
        second:
          m_Texture: {fileID: 2800000, guid: f7a0a732ad112a541100162a44295342, type: 3}
          m_Scale: {x: 1, y: 1}
          m_Offset: {x: 0, y: 0}
    m_Floats: {}
    m_Colors:
      data:
        first:
          name: _Color
        second: {r: 1, g: 1, b: 1, a: 1}
      data:
        first:
          name: _TintColor
        second: {r: .5, g: .5, b: .5, a: .5}
      data:
        first:
          name: BumpMapScale
        second: {r: 1, g: 1, b: 1, a: 1}
      data:
        first:
          name: _ProjectorClip_0
        second: {r: -.0154382316, g: -.0258666929, b: .144606143, a: .293609738}
      data:
        first:
          name: _ProjectorClip_1
        second: {r: .0047582523, g: .145238146, b: .0264877379, a: .00306412578}
      data:
        first:
          name: _ProjectorClip_2
        second: {r: -.0154382316, g: -.0258666929, b: .144606143, a: .293609738}
      data:
        first:
          name: _ProjectorClip_3
        second: {r: 0, g: 0, b: 0, a: 1}
      data:
        first:
          name: _ProjectorDistance_0
        second: {r: -.0152135147, g: -.0254901797, b: .142501265, a: .303891957}
      data:
        first:
          name: _ProjectorDistance_1
        second: {r: .00468899123, g: .143124074, b: .0261021852, a: .0175754428}
      data:
        first:
          name: _ProjectorDistance_2
        second: {r: -.0152135147, g: -.0254901797, b: .142501265, a: .303891957}
      data:
        first:
          name: _ProjectorDistance_3
        second: {r: 0, g: 0, b: 0, a: 1}
      data:
        first:
          name: _Projector_0
        second: {r: 1.67100453, g: -.174724922, b: .657876611, a: 1.0662117}
      data:
        first:
          name: _Projector_1
        second: {r: -.00143754855, g: 1.46366906, b: .772396564, a: 1.2343576}
      data:
        first:
          name: _Projector_2
        second: {r: -.107604526, g: -.180290937, b: 1.00790524, a: 1.94646192}
      data:
        first:
          name: _Projector_3
        second: {r: -.104516894, g: -.175117612, b: .978984177, a: 2.08773851}
--- !u!1002 &2100001
EditorExtensionImpl:
  serializedVersion: 6
