%YAML 1.1
%TAG !u! tag:unity3d.com,2011:
--- !u!134 &13400000
PhysicMaterial:
  m_ObjectHideFlags: 0
  m_PrefabParentObject: {fileID: 0}
  m_PrefabInternal: {fileID: 0}
  m_Name: WoodWalls
  dynamicFriction: .25
  staticFriction: .550000012
  bounciness: .25
  frictionCombine: 2
  bounceCombine: 3
--- !u!1002 &13400001
EditorExtensionImpl:
  serializedVersion: 6
