%YAML 1.1
%TAG !u! tag:unity3d.com,2011:
--- !u!134 &13400000
PhysicMaterial:
  m_ObjectHideFlags: 0
  m_PrefabParentObject: {fileID: 0}
  m_PrefabInternal: {fileID: 0}
  m_Name: zeroFrictionZeroBouncePhysMat
  dynamicFriction: .5
  staticFriction: .5
  bounciness: .5
  frictionCombine: 0
  bounceCombine: 3
