%YAML 1.1
%TAG !u! tag:unity3d.com,2011:
--- !u!21 &2100000
Material:
  serializedVersion: 3
  m_ObjectHideFlags: 0
  m_PrefabParentObject: {fileID: 0}
  m_PrefabInternal: {fileID: 0}
  m_Name: BallMAT
  m_Shader: {fileID: 2, guid: 0000000000000000e000000000000000, type: 0}
  m_ShaderKeywords: []
  m_SavedProperties:
    serializedVersion: 2
    m_TexEnvs:
      data:
        first:
          name: _MainTex
        second:
          m_Texture: {fileID: 2800000, guid: bdb55b1cfff6af5458d437a0d0693e59, type: 3}
          m_Scale: {x: 1, y: 1}
          m_Offset: {x: 0, y: 0}
      data:
        first:
          name: _BumpMap
        second:
          m_Texture: {fileID: 2800000, guid: 82faa0306d756434ab3d30a1eff5b248, type: 3}
          m_Scale: {x: 1, y: 1}
          m_Offset: {x: 0, y: 0}
      data:
        first:
          name: _ToonShade
        second:
          m_Texture: {fileID: 8900000, guid: b995d4bd9d11078d11005b9844295342, type: 3}
          m_Scale: {x: 1, y: 1}
          m_Offset: {x: 0, y: 0}
      data:
        first:
          name: _Ramp
        second:
          m_Texture: {fileID: 0}
          m_Scale: {x: 1, y: 1}
          m_Offset: {x: 0, y: 0}
    m_Floats:
      data:
        first:
          name: _Shininess
        second: 1
      data:
        first:
          name: _Outline
        second: .00499999989
    m_Colors:
      data:
        first:
          name: _Color
        second: {r: .752941191, g: .752941191, b: .752941191, a: 1}
      data:
        first:
          name: _SpecColor
        second: {r: 1, g: 1, b: 1, a: 0}
      data:
        first:
          name: _Emission
        second: {r: 0, g: 0, b: 0, a: 0}
      data:
        first:
          name: _TintColor
        second: {r: 1, g: 1, b: 1, a: 1}
      data:
        first:
          name: _OutlineColor
        second: {r: 0, g: 0, b: 0, a: 1}
--- !u!1002 &2100001
EditorExtensionImpl:
  serializedVersion: 6
