%YAML 1.1
%TAG !u! tag:unity3d.com,2011:
--- !u!21 &2100000
Material:
  serializedVersion: 6
  m_ObjectHideFlags: 0
  m_PrefabParentObject: {fileID: 0}
  m_PrefabInternal: {fileID: 0}
  m_Name: EasyWater
  m_Shader: {fileID: 4800000, guid: 3a6f357d7c7d04241b3d121bd746c966, type: 3}
  m_ShaderKeywords: 
  m_LightmapFlags: 5
  m_CustomRenderQueue: -1
  stringTagMap: {}
  m_SavedProperties:
    serializedVersion: 2
    m_TexEnvs:
      data:
        first:
          name: _MainTex
        second:
          m_Texture: {fileID: 0}
          m_Scale: {x: 1, y: 1}
          m_Offset: {x: 0, y: 0}
      data:
        first:
          name: _Reflection
        second:
          m_Texture: {fileID: 8900000, guid: 3dd5c1ebbe64b8045887edb341157668, type: 2}
          m_Scale: {x: 1, y: 1}
          m_Offset: {x: 0, y: 0}
      data:
        first:
          name: _BumpMap
        second:
          m_Texture: {fileID: 0}
          m_Scale: {x: 1, y: 1}
          m_Offset: {x: 0, y: 0}
      data:
        first:
          name: _BumpMap2
        second:
          m_Texture: {fileID: 2800000, guid: bde54cbe4813165438fd0d27549f6ae7, type: 3}
          m_Scale: {x: 4, y: 4}
          m_Offset: {x: 0, y: 0}
      data:
        first:
          name: _DistortionMap1
        second:
          m_Texture: {fileID: 2800000, guid: 4e1f47d89e2b2a148b30e9ecd0189cea, type: 3}
          m_Scale: {x: 20, y: 20}
          m_Offset: {x: 0, y: 0}
      data:
        first:
          name: _DistortionMap2
        second:
          m_Texture: {fileID: 2800000, guid: 4e1f47d89e2b2a148b30e9ecd0189cea, type: 3}
          m_Scale: {x: 19, y: 19}
          m_Offset: {x: 0, y: 0}
      data:
        first:
          name: _Texture1
        second:
          m_Texture: {fileID: 2800000, guid: c2ef94ff9d11915d1100a04b44295342, type: 3}
          m_Scale: {x: 32, y: 32}
          m_Offset: {x: 0, y: 0}
      data:
        first:
          name: _BumpMap1
        second:
          m_Texture: {fileID: 2800000, guid: bde54cbe4813165438fd0d27549f6ae7, type: 3}
          m_Scale: {x: 3, y: 3}
          m_Offset: {x: 0, y: 0}
      data:
        first:
          name: _Texture2
        second:
          m_Texture: {fileID: 2800000, guid: 84085cff9f6023044bc3a8e39991d366, type: 3}
          m_Scale: {x: 6, y: 6}
          m_Offset: {x: 0, y: 0}
      data:
        first:
          name: _DistortionMap
        second:
          m_Texture: {fileID: 2800000, guid: 4e1f47d89e2b2a148b30e9ecd0189cea, type: 3}
          m_Scale: {x: 25, y: 25}
          m_Offset: {x: 0, y: 0}
      data:
        first:
          name: _Mask
        second:
          m_Texture: {fileID: 2800000, guid: 4a0f0bc87d7824e46aa97f5ca4ac218d, type: 3}
          m_Scale: {x: 1, y: 1}
          m_Offset: {x: 0, y: 0}
    m_Floats:
      data:
        first:
          name: _Cutoff
        second: .18928571
      data:
        first:
          name: _DistortionPower
        second: .0146031743
      data:
        first:
          name: _Specular
        second: 7
      data:
        first:
          name: _Gloss
        second: 5.42063475
      data:
        first:
          name: _Opacity
        second: 1.5
      data:
        first:
          name: _ReflectPower
        second: .59523803
      data:
        first:
          name: _MainTexSpeed
        second: .180000007
      data:
        first:
          name: _Texture2Speed
        second: -.209999993
      data:
        first:
          name: _DistortionSpeed
        second: 2.05999994
      data:
        first:
          name: _Bump1Speed
        second: .209999993
      data:
        first:
          name: _Bump2Speed
        second: -.180000007
    m_Colors:
      data:
        first:
          name: _Color
        second: {r: 0, g: .506642938, b: .713235259, a: 1}
